<?xml version="1.0" encoding="utf-8"?>
<!-- Generator: Adobe Illustrator 25.4.1, SVG Export Plug-In . SVG Version: 6.00 Build 0)  -->
<svg version="1.1" id="Layer_1" xmlns="http://www.w3.org/2000/svg" xmlns:xlink="http://www.w3.org/1999/xlink" x="0px" y="0px"
	 viewBox="0 0 832.5 1210.9" style="enable-background:new 0 0 832.5 1210.9;" xml:space="preserve">
<style type="text/css">
	.st0{opacity:3.000000e-02;}
	.st1{fill:#F4F4F4;}
</style>
<g id="Layer_2_00000060751602120258541860000015310033205368940180_" class="st0">
	<g id="Layer_1-2">
		<path class="st1" d="M37.4,25.2C24.9,32.3,12.4,39.3,0,46.4v47.4c17.3,4,34.7,8.2,52,12.5l0,0c1.3,7.9,1.9,11.9,3.1,19.9
			s1.8,12,2.9,20c-15.7,8.7-31.4,17.4-47,26.2c-3.6-1-7.3-1.9-11-2.8v1.6c3.4,0.9,6.8,1.8,10.1,2.6c1.9,13.3,3.8,26.7,5.5,40.1l0,0
			c-5.2,2.9-10.4,5.8-15.6,8.7v1.8c5.6-3.1,11.2-6.3,16.8-9.4c17.2,4.8,34.4,9.7,51.6,14.7l0,0c0.9,8.2,1.3,12.3,2.1,20.5
			c0.8,8.2,1.2,12.3,1.9,20.6c-15.6,8.5-31.2,17-46.7,25.6c-8.5-2.6-17.1-5.2-25.6-7.8v1.6c8.3,2.5,16.5,5,24.7,7.5
			c1.3,13.7,2.4,27.5,3.4,41.2C18.8,344,9.4,349.2,0,354.4v1.7c9.7-5.3,19.5-10.7,29.2-16.1c16.5,5.3,32.9,10.8,49.2,16.4
			c0.4,8.4,0.7,12.6,1,21s0.6,12.7,0.9,21.1c-15.5,8.3-31,16.6-46.4,25c-11.2-4-22.6-8-33.9-11.9v1.7c11.1,3.8,22.1,7.7,33.1,11.6
			c0.6,14.1,1,28.2,1.4,42.3C23,473.5,11.5,479.7,0,486v1.7c11.8-6.4,23.6-12.8,35.4-19.2c15.7,5.9,31.3,11.9,46.8,18.1
			c0,8.6,0,12.9,0,21.6s0,13-0.1,21.6c-15.4,8.1-30.7,16.2-46,24.4c-14.7-6.1-23.5-9.6-36.1-14.6v1.7c12.1,4.8,20.8,8.3,35.2,14.3
			c-0.1,14.5-0.3,28.9-0.7,43.4c-11.5,6.1-23,12.2-34.5,18.4v1.7c11.8-6.3,23.6-12.6,35.4-18.8c17.9,7.7,26.8,11.6,44.5,19.6
			c-0.4,8.8-0.6,13.2-1,22.1s-0.7,13.3-1.2,22.2c-15.3,7.9-30.5,15.9-45.7,23.9c-13.1-6.1-21.2-10-32-14.8v1.8
			c10.3,4.7,18.3,8.4,31,14.4c-0.8,14.8-1.7,29.6-2.7,44.4c-9.4,4.9-18.9,9.9-28.3,14.9v1.8c9.7-5.1,19.4-10.2,29.1-15.3
			c16.9,8.3,25.4,12.6,42.1,21.2c-0.8,9-1.2,13.5-2,22.6s-1.2,13.6-2.2,22.7c-15.2,7.7-30.3,15.5-45.4,23.3
			C13,820.4,6.6,817,0,813.5v1.9c6.2,3.3,12.4,6.5,20.6,11c-1.5,15.1-3,30.3-4.7,45.4c-5.3,2.7-10.6,5.5-15.9,8.2v1.8
			c5.5-2.9,11.1-5.7,16.6-8.6c16,9,23.9,13.5,39.7,22.7c-1.2,9.2-1.8,13.8-3,23s-1.9,13.8-3.2,23.1c-15.1,7.6-30.1,15.2-45,22.8
			L0,961.7v2l4.1,2.5C2.8,975.6,1.4,985,0,994.5v20.7c13.7,8.7,21.2,13.5,35.3,22.8c-1.6,9.4-2.4,14.1-4,23.5s-2.5,14.1-4.2,23.6
			c-9,4.5-18.1,9-27.1,13.5v77.1l8.3,6.1c-2,9.7-4,19.3-6.1,29h1.6c2-9.3,4-18.7,5.9-28c14.9-7.3,29.9-14.7,44.8-22
			c14,10.4,21,15.6,34.8,26.3c-1.8,8-3.6,15.9-5.4,23.8h84.3c1.5-6,3-12,4.4-18.1l0,0c15.4-7.2,30.8-14.3,46.2-21.5
			c13.8,11,20.6,16.6,34.2,27.9c-1.2,4.6-2.1,8.2-3,11.6h1.7c0.9-3.4,1.8-6.9,3-11.5c15.6-7.1,31.2-14.2,46.8-21.2
			c13.7,11.4,20.5,17.1,33.9,28.7c-0.4,1.3-0.7,2.6-1.1,3.9h81.1c-10.9-9.8-17.5-15.6-29.7-26.1c2.8-10,4.1-15,6.8-25s4-15,6.6-25
			c16-7,31.9-14,47.9-21c13.9,11.7,20.8,17.5,34.5,29.4c-4.7,16.9-9.5,33.7-14.4,50.6c-13.3,5.7-26.7,11.4-40,17.2h4.2
			c12-5.2,24.1-10.4,36.1-15.5c6.9,6.2,12,10.8,17.1,15.5h53.6c4.2-1.7,8.3-3.5,12.5-5.2l5.6,5.2h2.9l-7.1-6.7l0,0
			c5.2-17,10.4-34.1,15.4-51.1c16.3-6.8,32.6-13.6,49-20.4c11.3,10.3,22.5,20.6,33.6,31.1c-3.2,10.3-4.8,15.5-8.1,25.8
			c-2.8,8.7-4.4,13.8-6.8,21.3h1.7c2.4-7.4,4-12.5,6.8-21.1c3.3-10.3,4.9-15.5,8.1-25.8c16.5-6.7,33-13.4,49.5-20.1
			c11.2,10.6,22.2,21.2,33,31.9c-3.8,11.7-7.7,23.3-11.7,35h89.9c2.5-7.1,5-14.3,7.5-21.4l12.4-4.8v-1.8l-12.7,4.9
			c-10.7-11-21.5-21.9-32.4-32.8c3.5-10.4,5.2-15.7,8.6-26.1s5.1-15.6,8.4-26c9.4-3.7,18.8-7.4,28.2-11.1V997
			c-15.9,6.3-31.7,12.7-47.5,19c-11.7-10.4-23.6-20.6-35.6-30.8c4.7-16.9,9.4-33.9,13.9-50.9c16.8-6.9,33.7-13.8,50.5-20.6
			c6.3,5.1,12.5,10.3,18.7,15.5V858l-4.4,1.8c-12.6-10-25.3-19.9-38.1-29.7c4.1-16.7,8-33.4,11.9-50.2c10.2-4.2,20.4-8.5,30.6-12.7
			v-1.9c-10.4,4.3-20.8,8.6-31.2,12.9c-13.1-9.6-26.3-19.2-39.6-28.6c2.1-9.9,3.2-14.9,5.3-24.8s3.1-14.8,5.1-24.7
			c17-7.2,34-14.4,51-21.5c3.2,2.2,6.3,4.3,9.4,6.5V683c-2.7-1.9-5.4-3.8-8.2-5.7c2.8-13.6,5.5-27.2,8.2-40.9v-10.8
			c-13.6-9-27.3-17.9-41.1-26.6c1.7-9.8,2.6-14.7,4.2-24.4s2.5-14.6,4.1-24.3c10.9-4.7,21.9-9.4,32.8-14v-75.4
			c-5.9-3.4-11.8-6.8-17.8-10.2c1.3-9.6,2-14.4,3.2-24s1.9-14.4,3.1-23.9c3.8-1.7,7.7-3.3,11.5-5v-92.5l-0.7-0.4
			c0.3-2.7,0.5-5,0.7-7.1v-22.6c-0.2,1.9-0.3,3.8-0.5,6.1c-0.8,9.4-1.3,14.1-2.2,23.5c-17.3,7.6-34.6,15.3-51.9,23
			c-15.8-8-31.7-15.8-47.7-23.5c1.1-15.5,2.2-30.9,3.2-46.4c17.3-7.8,34.6-15.7,51.9-23.5c15.8,7.4,31.6,15,47.2,22.7v-91.7
			c-14.8,6.7-29.7,13.3-44.5,20c-16.7-7.5-33.4-14.8-50.2-22c0.5-15.1,0.9-30.3,1.1-45.4c17.4-8.1,34.8-16.1,52.3-24.1
			c13.8,5.7,27.6,11.6,41.3,17.5V27.4c-13.6,6.2-27.1,12.4-40.7,18.6c-17.5-7-35.1-13.8-52.8-20.5c-0.1-8.5-0.3-17-0.5-25.5H628.1
			c0.5,10.3,0.9,20.6,1.3,30.8c-17.2,8.3-34.4,16.6-51.5,24.9c-17.7-6.3-35.5-12.4-53.3-18.3c-0.5-8.6-0.8-12.9-1.4-21.5
			c-0.4-6.5-0.7-10.6-1.1-15.9h-2.2c0.4,5.4,0.7,9.4,1.1,16c0.6,8.6,0.9,12.9,1.4,21.5c-17,8.4-33.9,16.8-50.8,25.2
			c-17.8-5.9-35.6-11.6-53.6-17.2c-1.2-14-2.5-28.1-3.9-42.1l6.6-3.3h-3.5L413,2.2L405.7,0h-75.6l-24,12.5
			C290.7,8.2,275.2,4.1,259.7,0h-6.1c17.3,4.5,34.5,9.1,51.6,13.9c1.7,13.8,3.3,27.6,4.8,41.3c-16.4,8.6-32.9,17.2-49.3,25.8
			c-17.9-5.2-35.8-10.2-53.9-15.1c-1.1-8.2-1.6-12.2-2.8-20.3s-1.7-12.2-2.9-20.2C217,16.9,232.8,8.4,248.6,0H140.9
			c0.6,3.3,1.2,6.8,1.9,10.9c-16.1,8.8-32.2,17.7-48.2,26.6c-18.3-4.3-36.7-8.5-55.1-12.5c-1.5-7.8-2.3-11.7-4-19.4
			C35,3.4,34.6,1.7,34.3,0h-2.1c0.4,1.7,0.8,3.6,1.2,5.8C35,13.6,35.8,17.4,37.4,25.2z M74.4,270.5c-0.7-8.2-1.1-12.4-1.9-20.6
			s-1.2-12.3-2.1-20.5c15.7-8.6,31.5-17.2,47.3-25.7c17.2,5.1,34.4,10.4,51.5,15.8c1.2,13.9,2.2,27.9,3.1,41.8
			c-15.9,8.4-31.7,16.9-47.5,25.3l0,0C108,281.1,91.2,275.7,74.4,270.5L74.4,270.5z M675.7,329.2c-0.7,9.3-1,13.9-1.8,23.2
			s-1.1,14-1.9,23.3c-17,7.7-33.9,15.5-50.8,23.2c-15.5-7.7-31.2-15.3-47-22.8l0,0c1-15.3,2-30.5,2.8-45.8
			c16.9-7.9,33.8-15.8,50.7-23.7C643.7,314.1,659.7,321.6,675.7,329.2L675.7,329.2z M630,258.2c-16.4-7.2-32.9-14.3-49.5-21.2l0,0
			c0.4-14.9,0.6-29.9,0.7-44.8c17-8.1,34.1-16.2,51.1-24.3c17,6.9,33.8,13.9,50.5,21c-0.3,9.1-0.4,13.6-0.7,22.7s-0.5,13.7-0.9,22.8
			C664.1,242.3,647,250.3,630,258.2L630,258.2z M753.4,522.5c-17,7.4-34,14.9-51,22.4c-14.6-8.5-29.3-16.9-44.1-25.2
			c1.2-9.5,1.8-14.2,3-23.7s1.7-14.2,2.8-23.6c16.9-7.6,33.9-15.2,50.9-22.8c15.2,8.2,30.2,16.5,45.1,25
			C757.9,490.6,755.7,506.6,753.4,522.5L753.4,522.5z M728.4,671.2c-16.8,7.2-33.7,14.5-50.5,21.8c-13.7-9-27.6-17.8-41.6-26.5
			c1.6-9.7,2.4-14.5,4-24.1s2.3-14.5,3.8-24.1c16.8-7.5,33.6-14.9,50.4-22.3c14.3,8.7,28.5,17.5,42.6,26.3
			C734.3,638.6,731.4,654.9,728.4,671.2z M573.7,967.3c2.5-10,3.7-15,6-24.9s3.6-14.9,5.9-24.8c16.5-7.1,33-14.2,49.5-21.3
			c12.7,9.5,25.2,19.2,37.6,28.9c-4.2,16.8-8.5,33.6-12.9,50.3c-16.5,6.9-33,13.9-49.5,20.9l0,0C598.2,986.6,586,976.9,573.7,967.3z
			 M407.8,904c-15.4-10.6-23.2-15.9-38.8-26.2l0,0c2.9-16,5.7-31.9,8.5-47.9c16.1-7.5,32.1-14.9,48.2-22.3
			c13.4,8.6,26.7,17.2,39.8,26c-1.8,9.7-2.8,14.5-4.6,24.2s-2.8,14.5-4.8,24.3C440.1,889.4,423.9,896.7,407.8,904z M348.9,975.8
			c-15-10.7-22.5-16-37.7-26.4c1.9-9.6,2.8-14.4,4.6-24s2.7-14.4,4.4-24c15.9-7.4,31.8-14.8,47.7-22.2
			c15.6,10.4,23.4,15.6,38.8,26.2c-3.2,16.2-6.6,32.4-10,48.6C380.8,961.3,364.8,968.5,348.9,975.8L348.9,975.8z M84.2,486.5
			c15.5-8.2,31.1-16.4,46.6-24.6c15.7,6.2,31.3,12.6,46.7,19.1c-0.2,14.7-0.5,29.3-1,43.9c-15.6,8-31.3,16.1-46.9,24.2l0,0
			c-15.1-6.6-30.3-13-45.6-19.4c0.1-8.7,0.1-13,0.1-21.7S84.2,495.2,84.2,486.5z M129,594.5c0.7-14.7,1.2-29.4,1.6-44.1
			c15.6-8.1,31.2-16.1,46.9-24.1c15.3,6.7,30.4,13.5,45.5,20.3c-0.4,8.9-0.6,13.4-1.1,22.4s-0.8,13.4-1.3,22.4
			c-15.7,7.9-31.4,15.8-47.1,23.8C155.7,606.8,146.8,602.7,129,594.5L129,594.5z M414.9,542.7c16.3-7.8,32.7-15.5,49.1-23.3
			c15,7.6,30,15.4,44.8,23.3c-1,9.3-1.5,14-2.6,23.4s-1.6,14.1-2.8,23.4c-16.4,7.6-32.8,15.2-49.2,22.9c-14.4-8-29-15.8-43.7-23.5
			l0,0C412.1,573.5,413.5,558.1,414.9,542.7L414.9,542.7z M474.5,333c-0.5,15-1.1,30-1.8,45.1c-16.5,7.9-33,15.9-49.5,23.9l0,0
			c-15.7-7-31.6-14-47.5-20.8c0.2-8.9,0.3-13.4,0.5-22.2s0.2-13.3,0.3-22.1c16.4-8.1,32.8-16.2,49.3-24.3
			C442.2,319.1,458.4,326,474.5,333z M424.2,403.3c16.5-8,32.9-16,49.5-23.9c15.8,7.1,31.6,14.4,47.2,21.8
			c-0.6,9.1-0.9,13.7-1.6,22.9s-1,13.8-1.7,23c-16.6,7.8-33.1,15.6-49.6,23.5c-15.3-7.5-30.7-14.8-46.2-22
			C422.8,433.5,423.6,418.4,424.2,403.3L424.2,403.3z M376.9,828.3c-16-10.2-24-15.2-40.2-25.1c1.5-9.5,2.2-14.2,3.6-23.6
			s2.1-14.2,3.4-23.5c16-7.6,32-15.1,48.1-22.7c13.9,8.2,27.6,16.5,41.2,24.9c-2.6,15.9-5.2,31.9-7.9,47.8
			C409,813.5,393,820.9,376.9,828.3L376.9,828.3z M305.1,684.2c-1.8,15.5-3.6,30.9-5.5,46.4c-15.8,7.6-31.6,15.3-47.4,23l0,0
			c-16.6-9.4-25-14-41.8-23.1c1-9.2,1.4-13.8,2.4-22.9s1.4-13.7,2.2-22.8c15.7-7.8,31.5-15.6,47.2-23.3
			C276.6,668.9,290.9,676.5,305.1,684.2z M263.3,660c1.5-15.2,2.8-30.4,4-45.6c15.9-7.9,31.8-15.7,47.8-23.5
			c14.8,7.4,29.4,14.9,44,22.5c-0.9,9.2-1.4,13.8-2.4,23.1s-1.5,13.9-2.5,23.2c-16,7.7-32,15.4-48,23.1
			C292,675.1,277.7,667.5,263.3,660z M245.8,802.9c16.3,9.6,24.4,14.4,40.4,24.2c-2.4,15.8-4.9,31.5-7.5,47.3
			c-15.7,7.5-31.4,14.9-47,22.4c-15.6-9.9-23.5-14.8-39.4-24.5l0,0c1.4-9.4,2.1-14,3.4-23.4s2-14,3.2-23.3
			C214.6,818.1,230.2,810.5,245.8,802.9z M246.9,801.5L246.9,801.5c2.1-15.5,4.1-31,6.1-46.5c15.8-7.7,31.6-15.3,47.4-23
			c16.7,9.5,25,14.3,41.5,24c-1.3,9.4-2,14.1-3.4,23.5s-2.1,14.2-3.6,23.6c-15.9,7.5-31.7,15-47.5,22.5
			C271.3,815.9,263.2,811.1,246.9,801.5L246.9,801.5z M392.9,732c2.2-15.7,4.4-31.4,6.4-47c16.2-7.6,32.4-15.2,48.6-22.8
			c14.2,8.1,28.3,16.3,42.3,24.7c-1.4,9.5-2.1,14.3-3.6,23.8s-2.2,14.3-3.8,23.9c-16.3,7.4-32.5,14.9-48.8,22.4
			C420.5,748.4,406.8,740.2,392.9,732L392.9,732z M488.5,710.7c1.5-9.5,2.2-14.3,3.6-23.8c16.4-7.5,32.8-15,49.3-22.5
			c14.1,8.4,28.1,16.9,42,25.6c-2.7,16.1-5.5,32.2-8.4,48.3c-16.5,7.3-32.9,14.7-49.4,22.1l0,0c-13.5-8.7-27.1-17.3-40.9-25.8
			C486.3,725,487,720.2,488.5,710.7L488.5,710.7z M517.4,810.3c3.1-16.1,6-32.3,8.9-48.4c16.4-7.4,32.9-14.7,49.4-22.1
			c13.6,8.8,27.1,17.7,40.5,26.7c-1.9,9.8-2.9,14.7-4.9,24.5s-3,14.7-5,24.5c-16.5,7.2-33,14.4-49.4,21.7
			C543.9,828.1,530.7,819.2,517.4,810.3L517.4,810.3z M584.6,688.6c-13.9-8.7-27.9-17.2-42-25.6l0,0c2.4-15.9,4.6-31.7,6.9-47.6
			c16.6-7.6,33.2-15.1,49.8-22.6c14.5,8.3,28.8,16.8,43,25.4c-1.5,9.6-2.3,14.4-3.8,24.1s-2.4,14.5-4,24.1
			C617.8,673.7,601.2,681.1,584.6,688.6z M606,542.4c-14.7-8.2-29.5-16.3-44.5-24.2l0,0c1.7-15.6,3.3-31.1,4.8-46.7
			c16.7-7.7,33.5-15.4,50.3-23.1c15.3,7.9,30.5,15.9,45.5,24c-1.1,9.4-1.6,14.2-2.8,23.6s-1.8,14.2-3,23.7
			C639.5,527.2,622.8,534.8,606,542.4z M604.8,543.8c-2,15.8-4.1,31.6-6.3,47.5c-16.6,7.5-33.2,15-49.8,22.6l0,0
			c-14.4-8.3-28.8-16.4-43.4-24.4c1.1-9.4,1.7-14.1,2.8-23.5s1.6-14,2.6-23.4c16.5-7.7,33.1-15.4,49.7-23
			C575.3,527.6,590.1,535.6,604.8,543.8z M453.1,613.8c-1.9,15.6-3.8,31.3-5.9,46.9c-16.2,7.5-32.4,15.1-48.6,22.8
			c-14.1-8-28.3-15.9-42.6-23.7c1-9.3,1.6-13.9,2.5-23.2s1.5-13.9,2.4-23.1c16.1-7.8,32.3-15.5,48.5-23.2
			C424.1,598,438.7,605.8,453.1,613.8z M367.1,519c-16.1,7.8-32.3,15.7-48.4,23.6c-15-7.2-30.1-14.3-45.3-21.3l0,0
			c0.8-14.9,1.4-29.8,2-44.7c16-8,32.1-16,48.2-24c15.5,6.9,30.9,13.9,46.3,21c-0.5,9-0.8,13.6-1.4,22.6S367.8,509.9,367.1,519
			L367.1,519z M322.7,451.3c-16.1,8-32.1,16-48.2,24l0,0c-15.4-6.8-31-13.5-46.6-20.1c0.2-8.8,0.2-13.2,0.3-22s0.1-13.1,0.1-21.9
			c16-8.2,32-16.3,48-24.5c16,6.5,31.9,13.1,47.7,19.8C323.7,421.6,323.3,436.5,322.7,451.3z M272.4,522.7
			c15.2,7,30.3,14.1,45.3,21.3c-1,15.2-2.2,30.3-3.4,45.5c-15.9,7.8-31.9,15.6-47.8,23.5l0,0c-14.6-7.3-29.4-14.5-44.2-21.6
			c0.6-9,0.8-13.5,1.3-22.5s0.7-13.4,1.2-22.4C240.7,538.6,256.5,530.7,272.4,522.7L272.4,522.7z M213.2,684.7
			c-0.8,9.1-1.3,13.7-2.2,22.8s-1.4,13.7-2.4,22.9c-15.6,7.7-31.1,15.5-46.6,23.3c-16.7-9-25.1-13.4-42-22.1c1.3-15,2.5-30,3.6-45.1
			c15.5-7.9,31-15.8,46.5-23.6C187.4,671.5,196.1,675.9,213.2,684.7L213.2,684.7z M197.2,825.7c-1.2,9.3-1.9,14-3.2,23.3
			s-2,14-3.4,23.4c-15.5,7.5-30.9,15.1-46.3,22.7c-15.7-9.5-23.7-14.3-39.6-23.6l0,0c2-15.3,3.9-30.7,5.7-46
			c15.3-7.7,30.7-15.4,46.1-23.1C172.9,811.6,181,816.3,197.2,825.7L197.2,825.7z M175,969.4c-1.7,9.5-2.5,14.2-4.2,23.7
			s-2.6,14.3-4.4,23.8c-15.3,7.4-30.6,14.8-45.9,22.2c-14.8-10.1-22.2-15.1-37.2-24.9c2.6-15.6,5.2-31.3,7.7-46.9
			c15.2-7.5,30.5-15.1,45.8-22.6C152.1,954.5,159.8,959.4,175,969.4z M172.5,993.2c1.7-9.5,2.6-14.2,4.2-23.7
			c15.5-7.5,30.9-14.9,46.5-22.3c15.3,10.1,22.9,15.2,38,25.6l0,0c-3.1,16-6.3,32.1-9.5,48.1c-15.6,7.3-31.1,14.6-46.6,21.9
			c-14.7-10.4-22.1-15.6-36.9-25.8C169.9,1007.5,170.8,1002.7,172.5,993.2z M224.3,945.7c2.8-15.8,5.5-31.6,8.1-47.4l0,0
			c15.6-7.5,31.3-15,47-22.4c15.7,10,23.5,15.1,39.1,25.3c-1.7,9.6-2.6,14.4-4.4,24s-2.7,14.4-4.6,24c-15.7,7.3-31.4,14.7-47.1,22.1
			C247.2,961,239.6,955.8,224.3,945.7z M462.7,857.9c1.9-9.7,2.8-14.5,4.6-24.2c16.3-7.3,32.5-14.7,48.8-22
			c13.3,8.9,26.4,17.8,39.5,26.9c-3.4,16.4-6.9,32.7-10.4,49.1c-16.3,7.2-32.6,14.4-48.9,21.6l0,0c-12.7-9.2-25.5-18.2-38.4-27.1
			C459.9,872.5,460.8,867.6,462.7,857.9z M496.9,910.9c16.3-7.2,32.6-14.4,48.9-21.6c12.8,9.2,25.5,18.6,38,28
			c-2.3,9.9-3.5,14.9-5.9,24.8s-3.6,14.9-6,24.9c-16.4,7-32.7,14.1-49,21.2c-12.2-9.5-24.5-18.9-37-28.2
			C489.7,943.7,493.3,927.3,496.9,910.9L496.9,910.9z M636.4,894.8c3.9-16.5,7.7-33.1,11.4-49.7c16.7-7.1,33.3-14.3,50-21.3
			c13,9.5,25.8,19.1,38.6,28.8l0,0c-2.4,10-3.6,15-6.1,25.1s-3.7,15.1-6.3,25.2c-16.7,7-33.3,14-50,21
			C661.6,914,649,904.3,636.4,894.8L636.4,894.8z M697.2,822.2c-16.7,7.1-33.3,14.2-50,21.3c-12.9-9.4-25.9-18.7-39.1-27.8
			c2-9.8,3.1-14.7,5-24.5s3-14.7,4.9-24.5c16.7-7.3,33.3-14.6,50-21.8c13.5,9.1,26.9,18.3,40.1,27.7
			C704.5,789.1,700.9,805.6,697.2,822.2L697.2,822.2z M620,400.4c-1.3,15.5-2.8,31.1-4.3,46.6c-16.8,7.7-33.5,15.4-50.2,23.1l0,0
			c-15.2-7.8-30.5-15.5-45.9-23c0.7-9.2,1.1-13.8,1.7-23s1-13.8,1.6-22.9c16.7-7.9,33.4-15.7,50.2-23.6
			C588.8,385,604.5,392.6,620,400.4z M526.3,285c-0.2,9-0.4,13.5-0.7,22.5c-16.7,8-33.4,16-50,24c-16.1-6.9-32.3-13.8-48.6-20.5
			c0.2-14.7,0.3-29.5,0.3-44.2c16.6-8.2,33.2-16.3,49.9-24.4c16.7,6.6,33.2,13.3,49.7,20.2C526.6,271.6,526.5,276,526.3,285z
			 M426.2,265.5c-16.6-6.5-33.2-12.9-50-19.2c-0.2-8.7-0.3-13.1-0.5-21.7s-0.4-13-0.7-21.6c16.5-8.3,33.1-16.6,49.7-24.9
			c17.1,6.2,34.1,12.5,51.1,18.9c0.2,14.7,0.3,29.4,0.3,44.1C459.4,249.2,442.8,257.3,426.2,265.5z M420.8,449.9
			c15.5,7.2,30.9,14.5,46.1,22c-1.2,15.3-2.5,30.7-3.8,46c-16.4,7.7-32.7,15.5-49.1,23.3c-14.9-7.5-29.9-14.9-45.1-22.2
			c0.6-9.1,1-13.6,1.5-22.7s0.9-13.6,1.4-22.6C388.2,465.7,404.5,457.8,420.8,449.9z M374.3,359c-0.2,8.9-0.3,13.3-0.5,22.2
			c-16.3,8-32.5,16.1-48.7,24.2c-15.8-6.7-31.7-13.3-47.7-19.8l0,0c0.1-14.6,0.1-29.1-0.1-43.7c16.2-8.2,32.4-16.4,48.6-24.6
			c16.4,6.4,32.6,12.9,48.8,19.5C374.5,345.7,374.5,350.1,374.3,359z M325.1,271.2c-16.6-6.2-33.3-12.3-50.2-18.2l0,0
			c-0.6-14.2-1.3-28.4-2.1-42.6c16.3-8.4,32.6-16.8,48.9-25.2c17.2,5.8,34.3,11.8,51.3,17.9c0.3,8.6,0.5,13,0.7,21.6
			s0.4,13,0.5,21.7C357.8,254.6,341.4,262.9,325.1,271.2z M274,254.4c16.8,5.9,33.5,12,50.1,18.2c0.4,14.5,0.6,29,0.7,43.5
			c-16.2,8.2-32.4,16.4-48.5,24.6l0,0c-16.2-6.3-32.6-12.4-49-18.5c-0.2-8.6-0.4-12.9-0.7-21.4s-0.5-12.8-0.9-21.3
			C241.7,271.1,257.8,262.7,274,254.4z M226.4,411.6c0,8.7,0,13.1-0.1,21.9s-0.1,13.1-0.3,21.9c-15.8,8.1-31.6,16.2-47.4,24.3
			c-15.5-6.5-31.1-12.9-46.8-19.1c0-14.4-0.2-28.7-0.5-43.1c15.7-8.3,31.5-16.5,47.2-24.7C194.6,398.9,210.6,405.2,226.4,411.6z
			 M177.4,347.2c-16.3-6-32.6-11.8-49.1-17.5c-0.7-14-1.5-28-2.5-42c15.8-8.5,31.7-16.9,47.6-25.3c16.8,5.6,33.6,11.3,50.3,17.1
			c0.4,8.5,0.6,12.8,0.9,21.3s0.5,12.8,0.7,21.4C209.3,330.6,193.3,338.9,177.4,347.2L177.4,347.2z M82.3,398.5
			c-0.3-8.5-0.5-12.7-0.9-21.1s-0.6-12.6-1-21c15.6-8.4,31.3-16.8,47-25.1c16.4,5.7,32.8,11.5,49.1,17.5c0.5,14.3,0.8,28.6,1,42.9
			c-15.8,8.2-31.5,16.4-47.2,24.7l0,0C114.4,410.2,98.4,404.3,82.3,398.5z M80.7,642.1c0.4-8.8,0.6-13.3,1-22.1
			c15.4-8,30.8-16,46.3-24c17.8,8.1,26.7,12.2,44.4,20.6c-0.9,15-1.9,30-3.1,44.9c-15.5,7.8-31,15.7-46.5,23.6l0,0
			c-17.2-8.5-25.9-12.7-43.2-20.9C80.1,655.3,80.3,650.9,80.7,642.1z M71,779c0.8-9,1.2-13.6,2-22.6c15.3-7.8,30.6-15.6,46-23.4
			c16.9,8.7,25.3,13.1,42,22.1c-1.6,15.3-3.3,30.6-5.1,45.9c-15.4,7.7-30.8,15.4-46.1,23.1c-16.3-9.1-24.5-13.6-40.9-22.4
			C69.7,792.6,70.2,788.1,71,779z M55.1,918.9c1.2-9.2,1.8-13.8,3-23c15.2-7.7,30.4-15.3,45.6-23c15.9,9.3,23.8,14,39.5,23.6
			c-2.3,15.6-4.7,31.2-7.1,46.8c-15.3,7.5-30.5,15-45.8,22.6c-15.3-9.7-23-14.4-38.5-23.8C53.2,932.7,53.8,928.1,55.1,918.9z
			 M28.8,1085.1c1.7-9.4,2.5-14.2,4.2-23.6c1.7-9.4,2.5-14.1,4-23.5c15-7.5,30.1-15,45.2-22.4c15,9.9,22.4,14.8,37.2,25l0,0
			c-3,15.9-6,31.8-9.1,47.6c-15.1,7.3-30.3,14.7-45.4,22.1C50.5,1100.1,43.3,1095,28.8,1085.1z M90.5,1185.8
			c-13.8-10.6-20.8-15.9-34.8-26.3c3.3-15.9,6.5-31.8,9.7-47.8l0,0c15.1-7.4,30.2-14.8,45.4-22.1c14.4,10.3,21.6,15.5,35.8,26
			c-2.1,9.7-3.1,14.5-5.2,24.1s-3.2,14.5-5.4,24.2C120.8,1171.2,105.7,1178.5,90.5,1185.8z M229.9,1120.8
			c-3.8,16.3-7.6,32.6-11.5,48.9c-15.4,7.1-30.8,14.3-46.2,21.5c-13.7-11-20.6-16.4-34.5-27.1c2.2-9.7,3.3-14.5,5.4-24.2
			s3.2-14.5,5.2-24.1c15.3-7.3,30.7-14.6,46.1-21.8C208.7,1104.6,215.8,1110,229.9,1120.8L229.9,1120.8z M231.1,1119.4
			c-14.1-10.9-21.2-16.2-35.6-26.9c3.4-16.1,6.8-32.2,10.1-48.2l0,0c15.5-7.3,31-14.6,46.6-21.9c14.8,10.5,22.1,15.9,36.6,26.7
			c-2.1,9.7-3.2,14.6-5.4,24.4s-3.3,14.7-5.6,24.4C262.2,1105,246.7,1112.2,231.1,1119.4z M279.5,1098c2.3-9.8,3.4-14.7,5.6-24.4
			s3.3-14.6,5.4-24.4c15.7-7.2,31.5-14.5,47.3-21.7c14.6,10.9,21.9,16.4,36.3,27.5c-3.9,16.5-7.9,32.9-12,49.4l0,0
			c-15.8,7.1-31.6,14.2-47.3,21.3C300.8,1114.5,293.8,1108.9,279.5,1098L279.5,1098z M390.9,1159.5c-2.7,10-4,15-6.8,25
			c-15.8,6.9-31.6,13.9-47.4,20.9c-13.4-11.6-20.2-17.4-33.9-28.8c4.3-16.5,8.4-33,12.5-49.5l0,0c15.8-7.1,31.5-14.2,47.3-21.3
			c14.1,11.3,21.1,17,34.9,28.6C394.9,1144.5,393.6,1149.5,390.9,1159.5L390.9,1159.5z M375.3,1053.5
			c-14.4-11.1-21.7-16.7-36.3-27.5c3.6-16.2,7.1-32.5,10.5-48.7c15.9-7.3,31.8-14.6,47.8-21.8c15.1,10.8,22.5,16.3,37.4,27.3
			c-2.2,9.8-3.4,14.8-5.6,24.6s-3.5,14.8-5.8,24.7C407.2,1039.3,391.3,1046.4,375.3,1053.5L375.3,1053.5z M424.9,1032.3
			c2.4-9.9,3.5-14.8,5.8-24.7s3.4-14.8,5.6-24.6c16.1-7.2,32.2-14.3,48.4-21.5c12.4,9.3,24.8,18.7,37,28.2
			c-4,16.6-8.2,33.2-12.4,49.8c-16.2,7-32.3,14-48.4,21.1l0,0C446.6,1049.2,439.4,1043.5,424.9,1032.3L424.9,1032.3z M482.9,1141.6
			c-13.7-11.9-20.6-17.8-34.5-29.4l0,0c4.4-16.7,8.8-33.3,13-50c16.1-7.1,32.3-14.1,48.5-21.1c14.3,11.6,21.4,17.4,35.5,29.2
			c-2.7,10.1-4.1,15.1-6.9,25.2s-4.2,15.2-7,25.3C515.3,1127.8,499.1,1134.7,482.9,1141.6L482.9,1141.6z M616.2,1131
			c-16.4,6.8-32.7,13.6-49,20.4l0,0c-13.5-12.2-20.3-18.3-34.1-30.2c2.9-10.1,4.3-15.2,7.1-25.3s4.2-15.1,6.9-25.2
			c16.3-7,32.6-13.9,49-20.8c11.8,9.9,23.5,20,35.1,30.1C626.2,1097,621.3,1114,616.2,1131z M632.4,1078.5
			c-11.6-10.1-23.3-20.2-35.1-30.1l0,0c4.6-16.8,9-33.6,13.4-50.4c16.5-7,33-13.9,49.5-20.8c12.2,9.9,24.2,19.9,36.1,30
			c-2.8,10.2-4.2,15.2-7.1,25.4c-2.9,10.2-4.3,15.3-7.3,25.5C665.4,1064.8,648.9,1071.6,632.4,1078.5L632.4,1078.5z M802.6,1102.6
			L802.6,1102.6c-3.3,10.4-5,15.6-8.4,26s-5.1,15.6-8.5,26.1c-16.7,6.6-33.3,13.1-49.9,19.8c-10.9-10.7-21.9-21.4-33-31.9
			c5.4-17.2,10.7-34.4,15.9-51.6c16.7-6.7,33.3-13.5,50-20.1C780.1,1081.3,791.4,1091.9,802.6,1102.6L802.6,1102.6z M783.6,1017.6
			c-5.1,17.2-10.2,34.3-15.4,51.4c-16.7,6.7-33.3,13.4-50,20.2c-11.4-10.4-22.9-20.7-34.6-31c3-10.2,4.4-15.3,7.3-25.5
			s4.3-15.3,7.1-25.5c16.7-6.9,33.3-13.7,50-20.5C760,996.9,771.9,1007.2,783.6,1017.6L783.6,1017.6z M788.6,831.7
			c12.8,9.8,25.5,19.7,38.1,29.7l0,0c-4.4,17-8.9,33.9-13.4,50.8c-16.8,6.8-33.7,13.7-50.5,20.6c-12.2-10-24.6-19.9-37.1-29.8
			c2.5-10.1,3.8-15.1,6.3-25.2s3.7-15.1,6.1-25.1C755,845.6,771.8,838.6,788.6,831.7L788.6,831.7z M765.1,724.9
			c-2.1,9.9-3.1,14.8-5.3,24.8c-16.9,7.1-33.7,14.3-50.5,21.4c-13.2-9.3-26.6-18.6-40.1-27.7c3.2-16.3,6.3-32.6,9.4-48.9
			c16.8-7.3,33.6-14.6,50.5-21.8c13.8,9,27.5,18.2,41.1,27.5l0,0C768.2,710,767.2,715,765.1,724.9z M793.7,574.5
			c-1.7,9.8-2.5,14.6-4.2,24.4c-17,7.3-34,14.6-51,22c-14.1-8.9-28.3-17.7-42.6-26.3c2.5-16,5-32,7.3-48.1c17-7.5,34-14.9,51-22.4
			c14.7,8.6,29.2,17.3,43.7,26.2l0,0C796.2,559.9,795.3,564.8,793.7,574.5L793.7,574.5z M819,402.8L819,402.8
			c-1.2,9.5-1.8,14.3-3,23.9s-1.9,14.4-3.2,24c-17.2,7.4-34.4,14.9-51.5,22.5c-14.9-8.4-30-16.8-45.2-25c1.8-15.7,3.6-31.5,5.3-47.2
			c17.1-7.7,34.3-15.3,51.4-22.9C788.3,386.1,803.7,394.4,819,402.8z M776.7,329.4c-1.5,15.7-3.1,31.4-4.7,47.1
			c-17.2,7.6-34.3,15.3-51.4,22.9c-15.4-8-31-16-46.6-23.8c0.8-9.3,1.2-14,2-23.3s1.1-13.9,1.8-23.2c17.1-7.8,34.2-15.6,51.3-23.4
			C745,313.6,760.9,321.4,776.7,329.4z M738,26.9c17.7,6.7,35.3,13.5,52.8,20.5l0,0c0,15.1-0.2,30.2-0.5,45.3
			c-17.5,8-34.9,16-52.3,24.1c-17.1-7.1-34.3-14-51.7-20.7c0-9,0-13.4-0.1-22.3s-0.1-13.3-0.3-22.2C703.2,43.2,720.6,35,738,26.9z
			 M684.9,188.9c17.2-8,34.5-16,51.8-23.9c16.8,7.2,33.6,14.5,50.2,22c-0.8,15.4-1.7,30.8-2.6,46.2c-17.3,7.8-34.6,15.6-51.9,23.5
			c-16.3-7.6-32.7-15-49.2-22.3c0.4-9.1,0.6-13.7,0.9-22.8S684.6,197.9,684.9,188.9L684.9,188.9z M579,57
			c17.2-8.3,34.3-16.6,51.5-24.9c17.8,6.3,35.5,12.8,53.1,19.4c0.2,8.9,0.2,13.3,0.3,22.2s0.1,13.4,0.1,22.3
			c-17.2,8.1-34.5,16.2-51.7,24.4c-17.2-6.7-34.6-13.3-52-19.7C580.1,86.2,579.6,71.6,579,57z M579.4,102.2
			c17.4,6.4,34.7,13,52,19.7c0.1,14.9,0.1,29.8-0.1,44.7c-17,8.1-34.1,16.2-51.1,24.3l0,0c-16.9-6.8-33.8-13.5-50.9-20
			c-0.1-8.8-0.2-13.2-0.3-22s-0.3-13.2-0.5-21.9C545.4,118.7,562.4,110.4,579.4,102.2L579.4,102.2z M528.3,285
			c0.2-9,0.3-13.5,0.5-22.4c16.8-8.1,33.7-16.1,50.6-24.1c16.6,7,33.1,14,49.5,21.3c-0.6,15.2-1.3,30.4-2.2,45.6
			c-16.9,7.8-33.8,15.7-50.7,23.7l0,0c-16-7.3-32.1-14.5-48.4-21.5C527.9,298.5,528.1,294,528.3,285z M526.3,127.1
			c0.2,8.8,0.3,13.1,0.5,21.9s0.2,13.2,0.3,22c-16.8,8.2-33.6,16.4-50.4,24.6c-16.9-6.4-34-12.7-51.1-18.9l0,0
			c-0.5-14.4-1.1-28.8-1.8-43.2c16.7-8.4,33.5-16.7,50.2-25C491.6,114.5,509,120.7,526.3,127.1L526.3,127.1z M417.1,46.9
			c17.9,5.6,35.8,11.4,53.5,17.3l0,0c0.9,14.3,1.7,28.7,2.3,43c-16.8,8.3-33.5,16.7-50.2,25c-17.4-6-34.9-11.8-52.4-17.5
			c-0.6-8.5-0.9-12.7-1.6-21.2s-1-12.7-1.7-21.1C383.7,63.8,400.4,55.3,417.1,46.9z M311.2,56.4c18,5.2,35.9,10.6,53.7,16.2
			c0.7,8.4,1.1,12.6,1.7,21.1s1,12.7,1.6,21.2c-16.5,8.4-33,16.9-49.5,25.4l0,0c-17.5-5.6-35-11.1-52.6-16.5
			c-1.3-13.9-2.7-27.7-4.2-41.5C278.4,73.5,294.8,64.9,311.2,56.4z M265.2,125.1c17.6,5.3,35.1,10.8,52.6,16.5
			c1,14.2,2,28.3,2.7,42.4c-16.3,8.4-32.6,16.8-48.9,25.2l0,0c-17.1-5.7-34.2-11.3-51.4-16.8c-0.7-8.4-1-12.6-1.7-20.9
			s-1.1-12.5-1.9-20.8C232.8,142.1,249,133.6,265.2,125.1L265.2,125.1z M214.5,150.9c0.8,8.3,1.2,12.4,1.9,20.8s1.1,12.5,1.8,20.9
			c-16.1,8.5-32.1,17-48.1,25.5c-17.1-5.4-34.3-10.7-51.6-15.8c-1.4-13.6-2.9-27.3-4.6-40.9c15.9-8.7,31.9-17.3,47.9-25.9
			C179.5,140.5,197,145.6,214.5,150.9L214.5,150.9z M144.1,12c18.4,4.4,36.7,8.9,55,13.6c1.2,8.1,1.8,12.1,3,20.2s1.7,12.2,2.8,20.3
			c-16.2,8.7-32.3,17.4-48.4,26.1c-17.9-4.8-35.9-9.5-53.9-14c-2.5-16-3.8-23.9-6.6-39.7l0,0C111.9,29.6,128,20.8,144.1,12z
			 M101.6,79.6c18,4.5,36,9.2,53.9,14c1.9,13.6,3.6,27.1,5.1,40.7l0,0c-16,8.6-32,17.2-47.9,25.9c-17.5-4.9-35.1-9.7-52.8-14.3
			c-1.1-8-1.7-12-2.9-20s-1.8-12-3.1-19.9C69.8,97.2,85.7,88.4,101.6,79.6z"/>
	</g>
</g>
</svg>
